R in 3 Months: Week 7 (Tidy Data)
…
---

## Is this dataset wide or long?

`wakefield_dataset`

```
## # A tibble: 100 × 4
##    name       age gender religion 
##    <chr>    <int> <chr>  <chr>    
##  1 Tinashe     18 Female Jewish   
##  2 Phenyx      38 Female Christian
##  3 Danytza     30 Female Hindu    
##  4 Jossy       48 Female Folk     
##  5 Deny        88 Female None     
##  6 Azaila      44 Male   Muslim   
##  7 Jazarion    40 Male   None     
##  8 Avarose     57 Female Folk     
##  9 Barett      60 Female Buddhist 
## 10 Cleatis     20 Male   Hindu    
## # … with 90 more rows
```

---

## Is this dataset wide or long?

`tidycensus`

```
## # A tibble: 108 × 5
##    GEOID NAME                     variable              estimate   moe
##    <chr> <chr>                    <chr>                    <dbl> <dbl>
##  1 41001 Baker County, Oregon     n_in_poverty_under_18      494   204
##  2 41001 Baker County, Oregon     n_in_poverty_male          907   230
##  3 41001 Baker County, Oregon     n_in_poverty_female       1014   222
##  4 41003 Benton County, Oregon    n_in_poverty_under_18     2042   408
##  5 41003 Benton County, Oregon    n_in_poverty_male         8439   587
##  6 41003 Benton County, Oregon    n_in_poverty_female       7880   599
##  7 41005 Clackamas County, Oregon n_in_poverty_under_18     8002   982
##  8 41005 Clackamas County, Oregon n_in_poverty_male        14369  1199
##  9 41005 Clackamas County, Oregon n_in_poverty_female      18234  1139
## 10 41007 Clatsop County, Oregon   n_in_poverty_under_18      573   206
## # … with 98 more rows
```

---

## Is this dataset wide or long?

`tidycensus v2`

```
## # A tibble: 36 × 8
##    GEOID NAME                    n_in_…¹ n_in_…² n_in_…³ n_in_…⁴ n_in_…⁵ n_in_…⁶
##    <chr> <chr>                     <dbl>   <dbl>   <dbl>   <dbl>   <dbl>   <dbl>
##  1 41039 Lane County, Oregon       29634    1657   34823    1495   13381    1111
##  2 41067 Washington County, Ore…   23520    1382   28586    1498   15621    1342
##  3 41007 Clatsop County, Oregon     1818     337    2046     348     573     206
##  4 41029 Jackson County, Oregon    14802    1097   18432    1335    9317    1040
##  5 41023 Grant County, Oregon        558     139     725     181     307     109
##  6 41005 Clackamas County, Oreg…   14369    1199   18234    1139    8002     982
##  7 41057 Tillamook County, Oreg…    1614     298    1751     307     957     297
##  8 41033 Josephine County, Oreg…    7488     797    7896     796    4102     644
##  9 41059 Umatilla County, Oregon    5296     700    7630     917    4991     841
## 10 41009 Columbia County, Oregon    2497     404    3431     473    1478     440
## # … with 26 more rows, and abbreviated variable names ¹​n_in_poverty_maleE,
## #   ²​n_in_poverty_maleM, ³​n_in_poverty_femaleE, ⁴​n_in_poverty_femaleM,
## #   ⁵​n_in_poverty_under_18E, ⁶​n_in_poverty_under_18M
```
…
